absl-py==0.2.2
aniso8601==3.0.2
APScheduler==3.5.1
arrow==0.12.1
astor==0.6.2
attrs==18.1.0
Automat==0.6.0
backcall==0.1.0
bleach==1.5.0
boto3==1.7.35
botocore==1.10.35
certifi==2018.4.16
chardet==3.0.4
click==6.7
cloudpickle==0.5.3
colorclass==2.2.0
coloredlogs==10.0
colorhash==1.0.2
ConfigArgParse==0.13.0
constantly==15.1.0
cycler==0.10.0
decorator==4.3.0
docopt==0.6.2
docutils==0.14
entrypoints==0.2.3
fakeredis==0.10.3
fbmessenger==5.1.0
Flask==1.0.2
Flask-Cors==3.0.4
Flask-JWT-Simple==0.0.3
flask-restplus==0.11.0
future==0.16.0
gast==0.2.0
gevent==1.3.3
graphviz==0.9
greenlet==0.4.13
grpcio==1.12.1
h5py==2.8.0
html5lib==0.9999999
humanfriendly==4.12.1
hyperlink==18.0.0
idna==2.6
incremental==17.5.0
ipykernel==4.8.2
ipython==6.4.0
ipython-genutils==0.2.0
itsdangerous==0.24
jedi==0.12.0
jieba==0.39
Jinja2==2.10
jmespath==0.9.3
jsonpickle==0.9.6
jsonschema==2.6.0
jupyter-client==5.2.3
jupyter-core==4.4.0
jupyterlab==0.32.1
jupyterlab-launcher==0.10.5
Keras==2.2.0
Keras-Applications==1.0.2
Keras-Preprocessing==1.0.1
kiwisolver==1.0.1
klein==17.10.0
Markdown==2.6.11
MarkupSafe==1.0
matplotlib==2.2.2
mattermostwrapper==2.1
mistune==0.8.3
mitie==0.2.0
nbconvert==5.3.1
nbformat==4.4.0
networkx==2.1
notebook==5.5.0
numpy==1.15.2
packaging==17.1
pandas==0.23.1
pandocfilters==1.4.2
parso==0.2.1
pathlib==1.0.1
pexpect==4.6.0
pickleshare==0.7.4
pika==0.11.2
prompt-toolkit==1.0.14
protobuf==3.6.1
ptyprocess==0.5.2
Pygments==2.2.0
PyInquirer==1.0.2
PyJWT==1.6.4
pykwalify==1.6.0
pymongo==3.7.2
pyparsing==2.2.0
PySocks==1.6.8
python-crfsuite==0.9.5
python-dateutil==2.7.3
python-engineio==2.3.2
python-socketio==2.0.0
python-telegram-bot==10.1.0
pytz==2018.4
PyYAML==3.12
pyzmq==17.0.0
rasa-core==0.11.12
rasa-core-sdk==0.11.5
rasa-nlu==0.13.7
redis==2.10.6
regex==2018.6.9
requests==2.18.4
rocketchat-API==0.6.22
ruamel.yaml==0.15.37
s3transfer==0.1.13
scikit-learn==0.19.1
scipy==1.1.0
Send2Trash==1.5.0
simplegeneric==0.8.1
simplejson==3.15.0
six==1.11.0
sklearn==0.0
sklearn-crfsuite==0.3.6
slackclient==1.2.1
tabulate==0.8.2
tensorboard==1.10.0
tensorflow==1.10.0
termcolor==1.1.0
terminado==0.8.1
terminaltables==3.1.0
testpath==0.3.1
tornado==5.0.2
tqdm==4.23.4
traitlets==4.3.2
twilio==6.14.4
Twisted==18.4.0
typing==3.6.4
tzlocal==1.5.1
urllib3==1.22
wcwidth==0.1.7
websocket-client==0.48.0
Werkzeug==0.14.1
xlrd==1.1.0
zope.interface==4.5.0
