﻿{
  "rasa_nlu_data": {
    "common_examples": [
      {
        "text": "我不想說",
        "intent": "inform",
        "entities": []
      },
      {
        "text": "我不想告訴你",
        "intent": "inform",
        "entities": []
      },
      {
        "text": "我不想跟你說",
        "intent": "inform",
        "entities": []
      },
      {
        "text": "不告訴你",
        "intent": "inform",
        "entities": []
      },
      {
        "text": "不告訴你勒",
        "intent": "inform",
        "entities": []
      },
      {
        "text": "不想跟妳講",
        "intent": "inform",
        "entities": []
      },
      {
        "text": "不想講",
        "intent": "inform",
        "entities": []
      },
      {
        "text": "不想說",
        "intent": "inform",
        "entities": []
      },
      {
        "text": "不跟你講",
        "intent": "inform",
        "entities": []
      },
      {
        "text": "不跟妳說",
        "intent": "inform",
        "entities": []
      },
      {
        "text": "不想告訴妳勒",
        "intent": "inform",
        "entities": []
      }
    ]
  }
}