﻿{
  "rasa_nlu_data": {
    "common_examples": [
      {
        "text": "bye",
        "intent": "goodbye",
        "entities": []
      },
      {
        "text": "再見",
        "intent": "goodbye",
        "entities": []
      },
      {
        "text": "886",
        "intent": "goodbye",
        "entities": []
      },
      {
        "text": "掰掰",
        "intent": "goodbye",
        "entities": []
      },
      {
        "text": "後會有期",
        "intent": "goodbye",
        "entities": []
      },
      {
        "text": "再會了",
        "intent": "goodbye",
        "entities": []
      },
      {
        "text": "byebye",
        "intent": "goodbye",
        "entities": []
      },
      {
        "text": "88~",
        "intent": "goodbye",
        "entities": []
      },
      {
        "text": "886~",
        "intent": "goodbye",
        "entities": []
      },
      {
        "text": "seeyou",
        "intent": "goodbye",
        "entities": []
      },
      {
        "text": "see you",
        "intent": "goodbye",
        "entities": []
      },
      {
        "text": "拜拜",
        "intent": "goodbye",
        "entities": []
      },
      {
        "text": "掰",
        "intent": "goodbye",
        "entities": []
      },
      {
        "text": "拜",
        "intent": "goodbye",
        "entities": []
      },
      {
        "text": "掰掰摟",
        "intent": "goodbye",
        "entities": []
      },
      {
        "text": "莎喲娜啦",
        "intent": "goodbye",
        "entities": []
      },
      {
        "text": "goodbye",
        "intent": "goodbye",
        "entities": []
      },
      {
        "text": "good bye",
        "intent": "goodbye",
        "entities": []
      },
      {
        "text": "再見了",
        "intent": "goodbye",
        "entities": []
      },
      {
        "text": "掰摟",
        "intent": "goodbye",
        "entities": []
      },
      {
        "text": "掰阿",
        "intent": "goodbye",
        "entities": []
      },
      {
        "text": "我要說再見了",
        "intent": "goodbye",
        "entities": []
      }
    ]
  }
}