﻿{
  "rasa_nlu_data": {
    "common_examples": [
      {
        "text": "我要修改投保金額和地點",
        "intent": "modify",
        "entities": [
          {
            "start": 9,
            "end": 11,
            "value": "region",
            "entity": "modified_item"
          },
          {
            "start": 4,
            "end": 8,
            "value": "coverage",
            "entity": "modified_item"
          }
        ]
      },
      {
        "text": "我要更改保額和日期",
        "intent": "modify",
        "entities": [
          {
            "start": 7,
            "end": 9,
            "value": "start_date",
            "entity": "modified_item"
          },
          {
            "start": 4,
            "end": 6,
            "value": "coverage",
            "entity": "modified_item"
          }
        ]
      },
      {
        "text": "改一下保額和地區",
        "intent": "modify",
        "entities": [
          {
            "start": 3,
            "end": 5,
            "value": "coverage",
            "entity": "modified_item"
          },
          {
            "start": 6,
            "end": 8,
            "value": "region",
            "entity": "modified_item"
          }
        ]
      },
      {
        "text": "修改一下天數和投保日期",
        "intent": "modify",
        "entities": [
          {
            "start": 4,
            "end": 6,
            "value": "duration",
            "entity": "modified_item"
          },
          {
            "start": 7,
            "end": 11,
            "value": "start_date",
            "entity": "modified_item"
          }
        ]
      },
      {
        "text": "修改出差地點和開始日期",
        "intent": "modify",
        "entities": [
          {
            "start": 2,
            "end": 6,
            "value": "region",
            "entity": "modified_item"
          },
          {
            "start": 7,
            "end": 11,
            "value": "start_date",
            "entity": "modified_item"
          }
        ]
      },
      {
        "text": "我要修改全部",
        "intent": "modify",
        "entities": [
          {
            "start": 4,
            "end": 6,
            "value": "all",
            "entity": "modified_item"
          }
        ]
      },
      {
        "text": "我要重新填寫",
        "intent": "modify",
        "entities": [
          {
            "start": 2,
            "end": 6,
            "value": "all",
            "entity": "modified_item"
          }
        ]
      },
      {
        "text": "我要重填全部",
        "intent": "modify",
        "entities": [
          {
            "start": 4,
            "end": 6,
            "value": "all",
            "entity": "modified_item"
          }
        ]
      },
      {
        "text": "我要更改投保日期和天數",
        "intent": "modify",
        "entities": [
          {
            "start": 4,
            "end": 8,
            "value": "start_date",
            "entity": "modified_item"
          },
          {
            "start": 9,
            "end": 11,
            "value": "duration",
            "entity": "modified_item"
          }
        ]
      },
      {
        "text": "更改旅遊地點和投保天數",
        "intent": "modify",
        "entities": [
          {
            "start": 2,
            "end": 6,
            "value": "region",
            "entity": "modified_item"
          },
          {
            "start": 7,
            "end": 11,
            "value": "duration",
            "entity": "modified_item"
          }
        ]
      }
    ]
  }
}