﻿{
  "rasa_nlu_data": {
    "common_examples": [
      {
        "text": "你好",
        "intent": "greet",
        "entities": []
      },
      {
        "text": "你好啊",
        "intent": "greet",
        "entities": []
      },
      {
        "text": "你好嗎",
        "intent": "greet",
        "entities": []
      },
      {
        "text": "hello",
        "intent": "greet",
        "entities": []
      },
      {
        "text": "hi",
        "intent": "greet",
        "entities": []
      },
      {
        "text": "早上好",
        "intent": "greet",
        "entities": []
      },
      {
        "text": "晚上好",
        "intent": "greet",
        "entities": []
      },
      {
        "text": "嗨",
        "intent": "greet",
        "entities": []
      },
      {
        "text": "妳好",
        "intent": "greet",
        "entities": []
      },
      {
        "text": "您好",
        "intent": "greet",
        "entities": []
      },
      {
        "text": "您好",
        "intent": "greet",
        "entities": []
      },
      {
        "text": "早安",
        "intent": "greet",
        "entities": []
      },
      {
        "text": "午安",
        "intent": "greet",
        "entities": []
      },
      {
        "text": "晚安",
        "intent": "greet",
        "entities": []
      }
    ]
  }
}
