﻿{
  "rasa_nlu_data": {
    "common_examples": [
      {
        "text": "民國107年3月19日12點30分，共2天",
        "intent": "inform",
        "entities": []
      },
      {
        "text": "2018年3月18日9點開始，共5日",
        "intent": "inform",
        "entities": []
      },
      {
        "text": "107年12月31日1點半，共8天",
        "intent": "inform",
        "entities": []
      },
      {
        "text": "108年5月18號下午5點，共10天",
        "intent": "inform",
        "entities": []
      },
      {
        "text": "2019年8月28日早上7點出發，總共7日",
        "intent": "inform",
        "entities": []
      },
      {
        "text": "11月17號晚上18點半，總共1天",
        "intent": "inform",
        "entities": []
      },
      {
        "text": "7月8日早上10點開始，共8天",
        "intent": "inform",
        "entities": []
      },
      {
        "text": "明天早上",
        "intent": "inform",
        "entities": []
      },
      {
        "text": "下禮拜6下午",
        "intent": "inform",
        "entities": []
      },
      {
        "text": "後天晚上",
        "intent": "inform",
        "entities": []
      },
      {
        "text": "隔天上午",
        "intent": "inform",
        "entities": []
      },
      {
        "text": "共4天",
        "intent": "inform",
        "entities": []
      },
      {
        "text": "明天中午",
        "intent": "inform",
        "entities": []
      },
      {
        "text": "後天凌晨",
        "intent": "inform",
        "entities": []
      },
      {
        "text": "端午節早上",
        "intent": "inform",
        "entities": []
      },
      {
        "text": "中秋節晚上",
        "intent": "inform",
        "entities": []
      }
    ]
  }
}